%YAML 1.1
%TAG !u! tag:unity3d.com,2011:
--- !u!1 &1227330909385755638
GameObject:
  m_ObjectHideFlags: 0
  m_CorrespondingSourceObject: {fileID: 0}
  m_PrefabInstance: {fileID: 0}
  m_PrefabAsset: {fileID: 0}
  serializedVersion: 6
  m_Component:
  - component: {fileID: 1227330909385755637}
  - component: {fileID: 716628376176490069}
  m_Layer: 0
  m_Name: GogoLoco Broke (VRCFury)
  m_TagString: Untagged
  m_Icon: {fileID: 0}
  m_NavMeshLayer: 0
  m_StaticEditorFlags: 0
  m_IsActive: 1
--- !u!4 &1227330909385755637
Transform:
  m_ObjectHideFlags: 0
  m_CorrespondingSourceObject: {fileID: 0}
  m_PrefabInstance: {fileID: 0}
  m_PrefabAsset: {fileID: 0}
  m_GameObject: {fileID: 1227330909385755638}
  m_LocalRotation: {x: 0, y: 0, z: 0, w: 1}
  m_LocalPosition: {x: 0, y: 0, z: 0}
  m_LocalScale: {x: 1, y: 1, z: 1}
  m_Children:
  - {fileID: 4211143965267152303}
  - {fileID: 9160226880783046128}
  m_Father: {fileID: 0}
  m_RootOrder: 0
  m_LocalEulerAnglesHint: {x: 0, y: 0, z: 0}
--- !u!114 &716628376176490069
MonoBehaviour:
  m_ObjectHideFlags: 0
  m_CorrespondingSourceObject: {fileID: 0}
  m_PrefabInstance: {fileID: 0}
  m_PrefabAsset: {fileID: 0}
  m_GameObject: {fileID: 1227330909385755638}
  m_Enabled: 1
  m_EditorHideFlags: 0
  m_Script: {fileID: 11500000, guid: d9e94e501a2d4c95bff3d5601013d923, type: 3}
  m_Name: 
  m_EditorClassIdentifier: 
  vrcfSerVersion: 7
  config:
    features:
    - id: 0
    - id: 1
  somethingIsBroken: 0
  references:
    version: 1
    00000000:
      type: {class: FullController, ns: VF.Model.Feature, asm: VRCFury}
      data:
        version: 2
        controllers:
        - controller: {fileID: 9100000, guid: 4485bd5c6aea29e48bf1428a18876fcc, type: 2}
          type: 4
          ResetMePlease: 0
        - controller: {fileID: 9100000, guid: bde5983a4f3eaa149ba18853e5bf4c4c, type: 2}
          type: 0
          ResetMePlease: 0
        - controller: {fileID: 9100000, guid: 22aa2a9fb13faf540afa2a5c86efd0c4, type: 2}
          type: 6
          ResetMePlease: 0
        - controller: {fileID: 9100000, guid: 7a370f2d94a2e2f40b3abad4a36fc8a6, type: 2}
          type: 5
          ResetMePlease: 0
        - controller: {fileID: 9100000, guid: c6e2190827640e144938baadbf01ee8e, type: 2}
          type: 7
          ResetMePlease: 0
        menus:
        - menu: {fileID: 11400000, guid: 246bd59ebb2aca94fbe31619c0bad91a, type: 2}
          prefix: 
          ResetMePlease: 0
        prms:
        - parameters: {fileID: 11400000, guid: 1320e51753e1e8b4595fd3b810d01836, type: 2}
          ResetMePlease: 0
        globalParams:
        - Go/Float
        - Go/Stationary
        removePrefixes: []
        addPrefix: 
        allNonsyncedAreGlobal: 0
        ignoreSaved: 0
        toggleParam: 
        useSecurityForToggle: 0
        rootObjOverride: {fileID: 0}
        rootBindingsApplyToAvatar: 1
        controller: {fileID: 0}
        menu: {fileID: 0}
        parameters: {fileID: 0}
        submenu: 
    00000001:
      type: {class: ArmatureLink, ns: VF.Model.Feature, asm: VRCFury}
      data:
        version: 1
        linkMode: 1
        propBone: {fileID: 1537329925289959692}
        boneOnAvatar: 10
        bonePathOnAvatar: 
        keepBoneOffsets: 0
        removeBoneSuffix: 
        physbonesOnAvatarBones: 0
        fallbackBones: 
        useOptimizedUpload: 0
        useBoneMerging: 0
--- !u!1 &1537329925289959692
GameObject:
  m_ObjectHideFlags: 0
  m_CorrespondingSourceObject: {fileID: 0}
  m_PrefabInstance: {fileID: 0}
  m_PrefabAsset: {fileID: 0}
  serializedVersion: 6
  m_Component:
  - component: {fileID: 9160226880783046128}
  m_Layer: 0
  m_Name: Head
  m_TagString: Untagged
  m_Icon: {fileID: 0}
  m_NavMeshLayer: 0
  m_StaticEditorFlags: 0
  m_IsActive: 1
--- !u!4 &9160226880783046128
Transform:
  m_ObjectHideFlags: 0
  m_CorrespondingSourceObject: {fileID: 0}
  m_PrefabInstance: {fileID: 0}
  m_PrefabAsset: {fileID: 0}
  m_GameObject: {fileID: 1537329925289959692}
  m_LocalRotation: {x: 0, y: 0, z: 0, w: 1}
  m_LocalPosition: {x: 0, y: 0, z: 0}
  m_LocalScale: {x: 1, y: 1, z: 1}
  m_Children: []
  m_Father: {fileID: 1227330909385755637}
  m_RootOrder: 1
  m_LocalEulerAnglesHint: {x: 0, y: 0, z: 0}
--- !u!1001 &3272719958694078062
PrefabInstance:
  m_ObjectHideFlags: 0
  serializedVersion: 2
  m_Modification:
    m_TransformParent: {fileID: 1227330909385755637}
    m_Modifications:
    - target: {fileID: 1665193221343275969, guid: 0331f36341a34cb49a05016f7d02ce86,
        type: 3}
      propertyPath: m_RootOrder
      value: 0
      objectReference: {fileID: 0}
    - target: {fileID: 1665193221343275969, guid: 0331f36341a34cb49a05016f7d02ce86,
        type: 3}
      propertyPath: m_LocalPosition.x
      value: 0
      objectReference: {fileID: 0}
    - target: {fileID: 1665193221343275969, guid: 0331f36341a34cb49a05016f7d02ce86,
        type: 3}
      propertyPath: m_LocalPosition.y
      value: 0
      objectReference: {fileID: 0}
    - target: {fileID: 1665193221343275969, guid: 0331f36341a34cb49a05016f7d02ce86,
        type: 3}
      propertyPath: m_LocalPosition.z
      value: 0
      objectReference: {fileID: 0}
    - target: {fileID: 1665193221343275969, guid: 0331f36341a34cb49a05016f7d02ce86,
        type: 3}
      propertyPath: m_LocalRotation.w
      value: 1
      objectReference: {fileID: 0}
    - target: {fileID: 1665193221343275969, guid: 0331f36341a34cb49a05016f7d02ce86,
        type: 3}
      propertyPath: m_LocalRotation.x
      value: 0
      objectReference: {fileID: 0}
    - target: {fileID: 1665193221343275969, guid: 0331f36341a34cb49a05016f7d02ce86,
        type: 3}
      propertyPath: m_LocalRotation.y
      value: 0
      objectReference: {fileID: 0}
    - target: {fileID: 1665193221343275969, guid: 0331f36341a34cb49a05016f7d02ce86,
        type: 3}
      propertyPath: m_LocalRotation.z
      value: 0
      objectReference: {fileID: 0}
    - target: {fileID: 1665193221343275969, guid: 0331f36341a34cb49a05016f7d02ce86,
        type: 3}
      propertyPath: m_LocalEulerAnglesHint.x
      value: 0
      objectReference: {fileID: 0}
    - target: {fileID: 1665193221343275969, guid: 0331f36341a34cb49a05016f7d02ce86,
        type: 3}
      propertyPath: m_LocalEulerAnglesHint.y
      value: 0
      objectReference: {fileID: 0}
    - target: {fileID: 1665193221343275969, guid: 0331f36341a34cb49a05016f7d02ce86,
        type: 3}
      propertyPath: m_LocalEulerAnglesHint.z
      value: 0
      objectReference: {fileID: 0}
    - target: {fileID: 1665193221343275970, guid: 0331f36341a34cb49a05016f7d02ce86,
        type: 3}
      propertyPath: m_Name
      value: Beyond Prefab
      objectReference: {fileID: 0}
    - target: {fileID: 1665193221489318819, guid: 0331f36341a34cb49a05016f7d02ce86,
        type: 3}
      propertyPath: m_Sources.Array.data[0].sourceTransform
      value: 
      objectReference: {fileID: 9160226880783046128}
    m_RemovedComponents: []
  m_SourcePrefab: {fileID: 100100000, guid: 0331f36341a34cb49a05016f7d02ce86, type: 3}
--- !u!4 &4211143965267152303 stripped
Transform:
  m_CorrespondingSourceObject: {fileID: 1665193221343275969, guid: 0331f36341a34cb49a05016f7d02ce86,
    type: 3}
  m_PrefabInstance: {fileID: 3272719958694078062}
  m_PrefabAsset: {fileID: 0}
