%YAML 1.1
%TAG !u! tag:unity3d.com,2011:
--- !u!1 &1233789107191791121
GameObject:
  m_ObjectHideFlags: 0
  m_CorrespondingSourceObject: {fileID: 0}
  m_PrefabInstance: {fileID: 0}
  m_PrefabAsset: {fileID: 0}
  serializedVersion: 6
  m_Component:
  - component: {fileID: 5132069682888502364}
  - component: {fileID: 6922019348717420746}
  m_Layer: 0
  m_Name: Gizmo
  m_TagString: Untagged
  m_Icon: {fileID: 0}
  m_NavMeshLayer: 0
  m_StaticEditorFlags: 0
  m_IsActive: 1
--- !u!4 &5132069682888502364
Transform:
  m_ObjectHideFlags: 0
  m_CorrespondingSourceObject: {fileID: 0}
  m_PrefabInstance: {fileID: 0}
  m_PrefabAsset: {fileID: 0}
  m_GameObject: {fileID: 1233789107191791121}
  m_LocalRotation: {x: -0.7071068, y: 0, z: 0, w: 0.7071068}
  m_LocalPosition: {x: 0, y: 0, z: 0}
  m_LocalScale: {x: 1, y: 1, z: 1}
  m_Children: []
  m_Father: {fileID: 3308034576040748061}
  m_RootOrder: 0
  m_LocalEulerAnglesHint: {x: -90, y: 0, z: 0}
--- !u!114 &6922019348717420746
MonoBehaviour:
  m_ObjectHideFlags: 0
  m_CorrespondingSourceObject: {fileID: 0}
  m_PrefabInstance: {fileID: 0}
  m_PrefabAsset: {fileID: 0}
  m_GameObject: {fileID: 1233789107191791121}
  m_Enabled: 1
  m_EditorHideFlags: 0
  m_Script: {fileID: 11500000, guid: d9e94e501a2d4c95bff3d5601013d923, type: 3}
  m_Name: 
  m_EditorClassIdentifier: 
  vrcfSerVersion: 7
  config:
    features:
    - id: 0
  somethingIsBroken: 0
  references:
    version: 1
    00000000:
      type: {class: Gizmo, ns: VF.Model.Feature, asm: VRCFury}
      data:
        version: 0
        rotation: {x: 0, y: 0, z: 0}
        text: Move to tip of right index finger, red arrow pointing in finger direction
        sphereRadius: 0
        arrowLength: 1
--- !u!1 &1862125868196431255
GameObject:
  m_ObjectHideFlags: 0
  m_CorrespondingSourceObject: {fileID: 0}
  m_PrefabInstance: {fileID: 0}
  m_PrefabAsset: {fileID: 0}
  serializedVersion: 6
  m_Component:
  - component: {fileID: 374817598448994222}
  - component: {fileID: 1630429681587194582}
  m_Layer: 0
  m_Name: Gizmo
  m_TagString: Untagged
  m_Icon: {fileID: 0}
  m_NavMeshLayer: 0
  m_StaticEditorFlags: 0
  m_IsActive: 1
--- !u!4 &374817598448994222
Transform:
  m_ObjectHideFlags: 0
  m_CorrespondingSourceObject: {fileID: 0}
  m_PrefabInstance: {fileID: 0}
  m_PrefabAsset: {fileID: 0}
  m_GameObject: {fileID: 1862125868196431255}
  m_LocalRotation: {x: 0, y: 0, z: 0, w: 1}
  m_LocalPosition: {x: 0, y: 0, z: 0}
  m_LocalScale: {x: 1, y: 1, z: 1}
  m_Children: []
  m_Father: {fileID: 3308034577628579598}
  m_RootOrder: 0
  m_LocalEulerAnglesHint: {x: 0, y: 0, z: 0}
--- !u!114 &1630429681587194582
MonoBehaviour:
  m_ObjectHideFlags: 0
  m_CorrespondingSourceObject: {fileID: 0}
  m_PrefabInstance: {fileID: 0}
  m_PrefabAsset: {fileID: 0}
  m_GameObject: {fileID: 1862125868196431255}
  m_Enabled: 1
  m_EditorHideFlags: 0
  m_Script: {fileID: 11500000, guid: d9e94e501a2d4c95bff3d5601013d923, type: 3}
  m_Name: 
  m_EditorClassIdentifier: 
  vrcfSerVersion: 7
  config:
    features:
    - id: 0
  somethingIsBroken: 0
  references:
    version: 1
    00000000:
      type: {class: Gizmo, ns: VF.Model.Feature, asm: VRCFury}
      data:
        version: 0
        rotation: {x: 0, y: 0, z: 0}
        text: Move to side of hip
        sphereRadius: 0
        arrowLength: 0
--- !u!1 &3046114777040229766
GameObject:
  m_ObjectHideFlags: 0
  m_CorrespondingSourceObject: {fileID: 0}
  m_PrefabInstance: {fileID: 0}
  m_PrefabAsset: {fileID: 0}
  serializedVersion: 6
  m_Component:
  - component: {fileID: 7376718688546015975}
  - component: {fileID: 5462643725042198620}
  m_Layer: 0
  m_Name: Gizmo
  m_TagString: Untagged
  m_Icon: {fileID: 0}
  m_NavMeshLayer: 0
  m_StaticEditorFlags: 0
  m_IsActive: 1
--- !u!4 &7376718688546015975
Transform:
  m_ObjectHideFlags: 0
  m_CorrespondingSourceObject: {fileID: 0}
  m_PrefabInstance: {fileID: 0}
  m_PrefabAsset: {fileID: 0}
  m_GameObject: {fileID: 3046114777040229766}
  m_LocalRotation: {x: 0, y: 0, z: 0, w: 1}
  m_LocalPosition: {x: 0, y: 0, z: 0}
  m_LocalScale: {x: 1, y: 1, z: 1}
  m_Children: []
  m_Father: {fileID: 3308034577448967987}
  m_RootOrder: 0
  m_LocalEulerAnglesHint: {x: 0, y: 0, z: 0}
--- !u!114 &5462643725042198620
MonoBehaviour:
  m_ObjectHideFlags: 0
  m_CorrespondingSourceObject: {fileID: 0}
  m_PrefabInstance: {fileID: 0}
  m_PrefabAsset: {fileID: 0}
  m_GameObject: {fileID: 3046114777040229766}
  m_Enabled: 1
  m_EditorHideFlags: 0
  m_Script: {fileID: 11500000, guid: d9e94e501a2d4c95bff3d5601013d923, type: 3}
  m_Name: 
  m_EditorClassIdentifier: 
  vrcfSerVersion: 7
  config:
    features:
    - id: 0
  somethingIsBroken: 0
  references:
    version: 1
    00000000:
      type: {class: Gizmo, ns: VF.Model.Feature, asm: VRCFury}
      data:
        version: 0
        rotation: {x: 0, y: 90, z: 0}
        text: Move to palm of left hand, red arrow pointing at head
        sphereRadius: 0
        arrowLength: 1
--- !u!1 &3142568533624157380
GameObject:
  m_ObjectHideFlags: 0
  m_CorrespondingSourceObject: {fileID: 0}
  m_PrefabInstance: {fileID: 0}
  m_PrefabAsset: {fileID: 0}
  serializedVersion: 6
  m_Component:
  - component: {fileID: 9066014057465008662}
  - component: {fileID: 1269798839528367986}
  m_Layer: 0
  m_Name: Gizmo
  m_TagString: Untagged
  m_Icon: {fileID: 0}
  m_NavMeshLayer: 0
  m_StaticEditorFlags: 0
  m_IsActive: 1
--- !u!4 &9066014057465008662
Transform:
  m_ObjectHideFlags: 0
  m_CorrespondingSourceObject: {fileID: 0}
  m_PrefabInstance: {fileID: 0}
  m_PrefabAsset: {fileID: 0}
  m_GameObject: {fileID: 3142568533624157380}
  m_LocalRotation: {x: 0, y: 0, z: 0, w: 1}
  m_LocalPosition: {x: 0, y: 0, z: 0}
  m_LocalScale: {x: 1, y: 1, z: 1}
  m_Children: []
  m_Father: {fileID: 3308034577597874133}
  m_RootOrder: 0
  m_LocalEulerAnglesHint: {x: 0, y: 0, z: 0}
--- !u!114 &1269798839528367986
MonoBehaviour:
  m_ObjectHideFlags: 0
  m_CorrespondingSourceObject: {fileID: 0}
  m_PrefabInstance: {fileID: 0}
  m_PrefabAsset: {fileID: 0}
  m_GameObject: {fileID: 3142568533624157380}
  m_Enabled: 1
  m_EditorHideFlags: 0
  m_Script: {fileID: 11500000, guid: d9e94e501a2d4c95bff3d5601013d923, type: 3}
  m_Name: 
  m_EditorClassIdentifier: 
  vrcfSerVersion: 7
  config:
    features:
    - id: 0
  somethingIsBroken: 0
  references:
    version: 1
    00000000:
      type: {class: Gizmo, ns: VF.Model.Feature, asm: VRCFury}
      data:
        version: 0
        rotation: {x: 0, y: 0, z: 0}
        text: Move to side of hip
        sphereRadius: 0
        arrowLength: 0
--- !u!1 &5673390057273382821
GameObject:
  m_ObjectHideFlags: 0
  m_CorrespondingSourceObject: {fileID: 0}
  m_PrefabInstance: {fileID: 0}
  m_PrefabAsset: {fileID: 0}
  serializedVersion: 6
  m_Component:
  - component: {fileID: 8311438448630525243}
  - component: {fileID: 4503261611706157702}
  m_Layer: 0
  m_Name: Gizmo
  m_TagString: Untagged
  m_Icon: {fileID: 0}
  m_NavMeshLayer: 0
  m_StaticEditorFlags: 0
  m_IsActive: 1
--- !u!4 &8311438448630525243
Transform:
  m_ObjectHideFlags: 0
  m_CorrespondingSourceObject: {fileID: 0}
  m_PrefabInstance: {fileID: 0}
  m_PrefabAsset: {fileID: 0}
  m_GameObject: {fileID: 5673390057273382821}
  m_LocalRotation: {x: -0.7071068, y: 0, z: 0, w: 0.7071068}
  m_LocalPosition: {x: 0, y: 0, z: 0}
  m_LocalScale: {x: 1, y: 1, z: 1}
  m_Children: []
  m_Father: {fileID: 3308034576663590757}
  m_RootOrder: 0
  m_LocalEulerAnglesHint: {x: 0, y: 0, z: 0}
--- !u!114 &4503261611706157702
MonoBehaviour:
  m_ObjectHideFlags: 0
  m_CorrespondingSourceObject: {fileID: 0}
  m_PrefabInstance: {fileID: 0}
  m_PrefabAsset: {fileID: 0}
  m_GameObject: {fileID: 5673390057273382821}
  m_Enabled: 1
  m_EditorHideFlags: 0
  m_Script: {fileID: 11500000, guid: d9e94e501a2d4c95bff3d5601013d923, type: 3}
  m_Name: 
  m_EditorClassIdentifier: 
  vrcfSerVersion: 7
  config:
    features:
    - id: 0
  somethingIsBroken: 0
  references:
    version: 1
    00000000:
      type: {class: Gizmo, ns: VF.Model.Feature, asm: VRCFury}
      data:
        version: 0
        rotation: {x: 0, y: 0, z: 0}
        text: Move to tip of left index finger, red arrow pointing in finger direction
        sphereRadius: 0
        arrowLength: 1
--- !u!1 &6423958595710621498
GameObject:
  m_ObjectHideFlags: 0
  m_CorrespondingSourceObject: {fileID: 0}
  m_PrefabInstance: {fileID: 0}
  m_PrefabAsset: {fileID: 0}
  serializedVersion: 6
  m_Component:
  - component: {fileID: 4190881894959628286}
  - component: {fileID: 9115836679021376004}
  m_Layer: 0
  m_Name: Gizmo
  m_TagString: Untagged
  m_Icon: {fileID: 0}
  m_NavMeshLayer: 0
  m_StaticEditorFlags: 0
  m_IsActive: 1
--- !u!4 &4190881894959628286
Transform:
  m_ObjectHideFlags: 0
  m_CorrespondingSourceObject: {fileID: 0}
  m_PrefabInstance: {fileID: 0}
  m_PrefabAsset: {fileID: 0}
  m_GameObject: {fileID: 6423958595710621498}
  m_LocalRotation: {x: 0, y: 0, z: 0, w: 1}
  m_LocalPosition: {x: 0, y: 0, z: 0}
  m_LocalScale: {x: 1, y: 1, z: 1}
  m_Children: []
  m_Father: {fileID: 3308034576591488437}
  m_RootOrder: 0
  m_LocalEulerAnglesHint: {x: 0, y: 0, z: 0}
--- !u!114 &9115836679021376004
MonoBehaviour:
  m_ObjectHideFlags: 0
  m_CorrespondingSourceObject: {fileID: 0}
  m_PrefabInstance: {fileID: 0}
  m_PrefabAsset: {fileID: 0}
  m_GameObject: {fileID: 6423958595710621498}
  m_Enabled: 1
  m_EditorHideFlags: 0
  m_Script: {fileID: 11500000, guid: d9e94e501a2d4c95bff3d5601013d923, type: 3}
  m_Name: 
  m_EditorClassIdentifier: 
  vrcfSerVersion: 7
  config:
    features:
    - id: 0
  somethingIsBroken: 0
  references:
    version: 1
    00000000:
      type: {class: Gizmo, ns: VF.Model.Feature, asm: VRCFury}
      data:
        version: 0
        rotation: {x: 0, y: 90, z: 0}
        text: Move to palm of right hand, red arrow pointing at head
        sphereRadius: 0
        arrowLength: 1
--- !u!114 &8984543538271830591
MonoBehaviour:
  m_ObjectHideFlags: 0
  m_CorrespondingSourceObject: {fileID: 0}
  m_PrefabInstance: {fileID: 0}
  m_PrefabAsset: {fileID: 0}
  m_GameObject: {fileID: 3308034577127976556}
  m_Enabled: 1
  m_EditorHideFlags: 0
  m_Script: {fileID: 11500000, guid: d9e94e501a2d4c95bff3d5601013d923, type: 3}
  m_Name: 
  m_EditorClassIdentifier: 
  vrcfSerVersion: 7
  config:
    features:
    - id: 0
    - id: 1
    - id: 2
    - id: 3
    - id: 4
    - id: 5
    - id: 6
  somethingIsBroken: 0
  references:
    version: 1
    00000000:
      type: {class: FullController, ns: VF.Model.Feature, asm: VRCFury}
      data:
        version: 2
        controllers:
        - controller: {fileID: 9100000, guid: bdb72eadd9ed318468934652f1d00cd5, type: 2}
          type: 5
          ResetMePlease: 0
        menus:
        - menu: {fileID: 11400000, guid: 334e96b18226c56468a86ea24b93f382, type: 2}
          prefix: Butterfly Knife
          ResetMePlease: 0
        prms:
        - parameters: {fileID: 11400000, guid: 5031f0a29b702e046ac2f8ce950ab626, type: 2}
          ResetMePlease: 0
        globalParams: []
        removePrefixes: []
        addPrefix: 
        allNonsyncedAreGlobal: 0
        ignoreSaved: 0
        toggleParam: KnifeToggle
        useSecurityForToggle: 0
        rootObjOverride: {fileID: 0}
        rootBindingsApplyToAvatar: 0
        controller: {fileID: 0}
        menu: {fileID: 0}
        parameters: {fileID: 0}
        submenu: 
    00000001:
      type: {class: ArmatureLink, ns: VF.Model.Feature, asm: VRCFury}
      data:
        version: 1
        linkMode: 1
        propBone: {fileID: 3308034576663590758}
        boneOnAvatar: 29
        bonePathOnAvatar: 
        keepBoneOffsets: 1
        removeBoneSuffix: 
        physbonesOnAvatarBones: 0
        fallbackBones: 1c0000001b000000
        useOptimizedUpload: 0
        useBoneMerging: 0
    00000002:
      type: {class: ArmatureLink, ns: VF.Model.Feature, asm: VRCFury}
      data:
        version: 1
        linkMode: 1
        propBone: {fileID: 3308034577448967996}
        boneOnAvatar: 17
        bonePathOnAvatar: 
        keepBoneOffsets: 1
        removeBoneSuffix: 
        physbonesOnAvatarBones: 0
        fallbackBones: 
        useOptimizedUpload: 0
        useBoneMerging: 0
    00000003:
      type: {class: ArmatureLink, ns: VF.Model.Feature, asm: VRCFury}
      data:
        version: 1
        linkMode: 1
        propBone: {fileID: 3308034576040748062}
        boneOnAvatar: 44
        bonePathOnAvatar: 
        keepBoneOffsets: 1
        removeBoneSuffix: 
        physbonesOnAvatarBones: 0
        fallbackBones: 2b0000002a000000
        useOptimizedUpload: 0
        useBoneMerging: 0
    00000004:
      type: {class: ArmatureLink, ns: VF.Model.Feature, asm: VRCFury}
      data:
        version: 1
        linkMode: 1
        propBone: {fileID: 3308034576591488438}
        boneOnAvatar: 18
        bonePathOnAvatar: 
        keepBoneOffsets: 1
        removeBoneSuffix: 
        physbonesOnAvatarBones: 0
        fallbackBones: 
        useOptimizedUpload: 0
        useBoneMerging: 0
    00000005:
      type: {class: ArmatureLink, ns: VF.Model.Feature, asm: VRCFury}
      data:
        version: 1
        linkMode: 1
        propBone: {fileID: 3308034577628579599}
        boneOnAvatar: 0
        bonePathOnAvatar: 
        keepBoneOffsets: 1
        removeBoneSuffix: 
        physbonesOnAvatarBones: 0
        fallbackBones: 
        useOptimizedUpload: 0
        useBoneMerging: 0
    00000006:
      type: {class: ArmatureLink, ns: VF.Model.Feature, asm: VRCFury}
      data:
        version: 1
        linkMode: 1
        propBone: {fileID: 3308034577597874134}
        boneOnAvatar: 0
        bonePathOnAvatar: 
        keepBoneOffsets: 1
        removeBoneSuffix: 
        physbonesOnAvatarBones: 0
        fallbackBones: 
        useOptimizedUpload: 0
        useBoneMerging: 0
--- !u!1001 &8280769015933524219
PrefabInstance:
  m_ObjectHideFlags: 0
  serializedVersion: 2
  m_Modification:
    m_TransformParent: {fileID: 0}
    m_Modifications:
    - target: {fileID: 1353453462323070927, guid: ab70867fff3d5be4f82548c8b4926f7d,
        type: 3}
      propertyPath: m_LocalPosition.x
      value: 0
      objectReference: {fileID: 0}
    - target: {fileID: 1353453462323070927, guid: ab70867fff3d5be4f82548c8b4926f7d,
        type: 3}
      propertyPath: m_LocalPosition.y
      value: 0
      objectReference: {fileID: 0}
    - target: {fileID: 1353453462323070927, guid: ab70867fff3d5be4f82548c8b4926f7d,
        type: 3}
      propertyPath: m_LocalPosition.z
      value: 0
      objectReference: {fileID: 0}
    - target: {fileID: 1357339964301431863, guid: ab70867fff3d5be4f82548c8b4926f7d,
        type: 3}
      propertyPath: m_LocalPosition.x
      value: 0.73676527
      objectReference: {fileID: 0}
    - target: {fileID: 1357339964301431863, guid: ab70867fff3d5be4f82548c8b4926f7d,
        type: 3}
      propertyPath: m_LocalPosition.y
      value: 1.3037086
      objectReference: {fileID: 0}
    - target: {fileID: 1357339964301431863, guid: ab70867fff3d5be4f82548c8b4926f7d,
        type: 3}
      propertyPath: m_LocalPosition.z
      value: 0.05458033
      objectReference: {fileID: 0}
    - target: {fileID: 6846399833749013435, guid: ab70867fff3d5be4f82548c8b4926f7d,
        type: 3}
      propertyPath: m_LocalPosition.y
      value: 1.3036084
      objectReference: {fileID: 0}
    - target: {fileID: 6846399833749013435, guid: ab70867fff3d5be4f82548c8b4926f7d,
        type: 3}
      propertyPath: m_LocalPosition.z
      value: 0.0511806
      objectReference: {fileID: 0}
    - target: {fileID: 6846399833929381745, guid: ab70867fff3d5be4f82548c8b4926f7d,
        type: 3}
      propertyPath: m_LocalPosition.z
      value: 0.054000005
      objectReference: {fileID: 0}
    - target: {fileID: 6846399834356861538, guid: ab70867fff3d5be4f82548c8b4926f7d,
        type: 3}
      propertyPath: m_LocalPosition.y
      value: 1.9897021
      objectReference: {fileID: 0}
    - target: {fileID: 6846399834356861538, guid: ab70867fff3d5be4f82548c8b4926f7d,
        type: 3}
      propertyPath: m_LocalPosition.z
      value: 0.05458033
      objectReference: {fileID: 0}
    - target: {fileID: 6846399834802058903, guid: ab70867fff3d5be4f82548c8b4926f7d,
        type: 3}
      propertyPath: m_Name
      value: Butterfly Knife
      objectReference: {fileID: 0}
    - target: {fileID: 6846399834802058904, guid: ab70867fff3d5be4f82548c8b4926f7d,
        type: 3}
      propertyPath: m_RootOrder
      value: 0
      objectReference: {fileID: 0}
    - target: {fileID: 6846399834802058904, guid: ab70867fff3d5be4f82548c8b4926f7d,
        type: 3}
      propertyPath: m_LocalPosition.x
      value: 0
      objectReference: {fileID: 0}
    - target: {fileID: 6846399834802058904, guid: ab70867fff3d5be4f82548c8b4926f7d,
        type: 3}
      propertyPath: m_LocalPosition.y
      value: 0
      objectReference: {fileID: 0}
    - target: {fileID: 6846399834802058904, guid: ab70867fff3d5be4f82548c8b4926f7d,
        type: 3}
      propertyPath: m_LocalPosition.z
      value: 0
      objectReference: {fileID: 0}
    - target: {fileID: 6846399834802058904, guid: ab70867fff3d5be4f82548c8b4926f7d,
        type: 3}
      propertyPath: m_LocalRotation.w
      value: 1
      objectReference: {fileID: 0}
    - target: {fileID: 6846399834802058904, guid: ab70867fff3d5be4f82548c8b4926f7d,
        type: 3}
      propertyPath: m_LocalRotation.x
      value: 0
      objectReference: {fileID: 0}
    - target: {fileID: 6846399834802058904, guid: ab70867fff3d5be4f82548c8b4926f7d,
        type: 3}
      propertyPath: m_LocalRotation.y
      value: 0
      objectReference: {fileID: 0}
    - target: {fileID: 6846399834802058904, guid: ab70867fff3d5be4f82548c8b4926f7d,
        type: 3}
      propertyPath: m_LocalRotation.z
      value: 0
      objectReference: {fileID: 0}
    - target: {fileID: 6846399834802058904, guid: ab70867fff3d5be4f82548c8b4926f7d,
        type: 3}
      propertyPath: m_LocalEulerAnglesHint.x
      value: 0
      objectReference: {fileID: 0}
    - target: {fileID: 6846399834802058904, guid: ab70867fff3d5be4f82548c8b4926f7d,
        type: 3}
      propertyPath: m_LocalEulerAnglesHint.y
      value: 0
      objectReference: {fileID: 0}
    - target: {fileID: 6846399834802058904, guid: ab70867fff3d5be4f82548c8b4926f7d,
        type: 3}
      propertyPath: m_LocalEulerAnglesHint.z
      value: 0
      objectReference: {fileID: 0}
    - target: {fileID: 6846399835192891131, guid: ab70867fff3d5be4f82548c8b4926f7d,
        type: 3}
      propertyPath: m_LocalPosition.y
      value: 1.9894016
      objectReference: {fileID: 0}
    - target: {fileID: 6846399835192891131, guid: ab70867fff3d5be4f82548c8b4926f7d,
        type: 3}
      propertyPath: m_LocalPosition.z
      value: 0.0511806
      objectReference: {fileID: 0}
    - target: {fileID: 6846399835764484256, guid: ab70867fff3d5be4f82548c8b4926f7d,
        type: 3}
      propertyPath: m_LocalPosition.y
      value: 0.9057358
      objectReference: {fileID: 0}
    - target: {fileID: 6846399835817113075, guid: ab70867fff3d5be4f82548c8b4926f7d,
        type: 3}
      propertyPath: m_LocalPosition.y
      value: 0.9057358
      objectReference: {fileID: 0}
    m_RemovedComponents: []
  m_SourcePrefab: {fileID: 100100000, guid: ab70867fff3d5be4f82548c8b4926f7d, type: 3}
--- !u!1 &3308034576040748062 stripped
GameObject:
  m_CorrespondingSourceObject: {fileID: 6846399835820080357, guid: ab70867fff3d5be4f82548c8b4926f7d,
    type: 3}
  m_PrefabInstance: {fileID: 8280769015933524219}
  m_PrefabAsset: {fileID: 0}
--- !u!4 &3308034577448967987 stripped
Transform:
  m_CorrespondingSourceObject: {fileID: 6846399833872877512, guid: ab70867fff3d5be4f82548c8b4926f7d,
    type: 3}
  m_PrefabInstance: {fileID: 8280769015933524219}
  m_PrefabAsset: {fileID: 0}
--- !u!1 &3308034577628579599 stripped
GameObject:
  m_CorrespondingSourceObject: {fileID: 6846399834229153780, guid: ab70867fff3d5be4f82548c8b4926f7d,
    type: 3}
  m_PrefabInstance: {fileID: 8280769015933524219}
  m_PrefabAsset: {fileID: 0}
--- !u!4 &3308034577628579598 stripped
Transform:
  m_CorrespondingSourceObject: {fileID: 6846399834229153781, guid: ab70867fff3d5be4f82548c8b4926f7d,
    type: 3}
  m_PrefabInstance: {fileID: 8280769015933524219}
  m_PrefabAsset: {fileID: 0}
--- !u!1 &3308034577448967996 stripped
GameObject:
  m_CorrespondingSourceObject: {fileID: 6846399833872877511, guid: ab70867fff3d5be4f82548c8b4926f7d,
    type: 3}
  m_PrefabInstance: {fileID: 8280769015933524219}
  m_PrefabAsset: {fileID: 0}
--- !u!4 &3308034576663590757 stripped
Transform:
  m_CorrespondingSourceObject: {fileID: 6846399835268542366, guid: ab70867fff3d5be4f82548c8b4926f7d,
    type: 3}
  m_PrefabInstance: {fileID: 8280769015933524219}
  m_PrefabAsset: {fileID: 0}
--- !u!1 &3308034576663590758 stripped
GameObject:
  m_CorrespondingSourceObject: {fileID: 6846399835268542365, guid: ab70867fff3d5be4f82548c8b4926f7d,
    type: 3}
  m_PrefabInstance: {fileID: 8280769015933524219}
  m_PrefabAsset: {fileID: 0}
--- !u!1 &3308034577597874134 stripped
GameObject:
  m_CorrespondingSourceObject: {fileID: 6846399833795290925, guid: ab70867fff3d5be4f82548c8b4926f7d,
    type: 3}
  m_PrefabInstance: {fileID: 8280769015933524219}
  m_PrefabAsset: {fileID: 0}
--- !u!4 &3308034577597874133 stripped
Transform:
  m_CorrespondingSourceObject: {fileID: 6846399833795290926, guid: ab70867fff3d5be4f82548c8b4926f7d,
    type: 3}
  m_PrefabInstance: {fileID: 8280769015933524219}
  m_PrefabAsset: {fileID: 0}
--- !u!1 &3308034576591488438 stripped
GameObject:
  m_CorrespondingSourceObject: {fileID: 6846399835339578701, guid: ab70867fff3d5be4f82548c8b4926f7d,
    type: 3}
  m_PrefabInstance: {fileID: 8280769015933524219}
  m_PrefabAsset: {fileID: 0}
--- !u!4 &3308034576591488437 stripped
Transform:
  m_CorrespondingSourceObject: {fileID: 6846399835339578702, guid: ab70867fff3d5be4f82548c8b4926f7d,
    type: 3}
  m_PrefabInstance: {fileID: 8280769015933524219}
  m_PrefabAsset: {fileID: 0}
--- !u!4 &3308034576040748061 stripped
Transform:
  m_CorrespondingSourceObject: {fileID: 6846399835820080358, guid: ab70867fff3d5be4f82548c8b4926f7d,
    type: 3}
  m_PrefabInstance: {fileID: 8280769015933524219}
  m_PrefabAsset: {fileID: 0}
--- !u!1 &3308034577127976556 stripped
GameObject:
  m_CorrespondingSourceObject: {fileID: 6846399834802058903, guid: ab70867fff3d5be4f82548c8b4926f7d,
    type: 3}
  m_PrefabInstance: {fileID: 8280769015933524219}
  m_PrefabAsset: {fileID: 0}
